%YAML 1.1
%TAG !u! tag:unity3d.com,2011:
--- !u!114 &11400000
MonoBehaviour:
  m_ObjectHideFlags: 0
  m_CorrespondingSourceObject: {fileID: 0}
  m_PrefabInstance: {fileID: 0}
  m_PrefabAsset: {fileID: 0}
  m_GameObject: {fileID: 0}
  m_Enabled: 1
  m_EditorHideFlags: 0
  m_Script: {fileID: 11500000, guid: af7181f404f1447c0a7a17b3070b952b, type: 3}
  m_Name: Ground
  m_EditorClassIdentifier: 
  m_Angles:
  - m_Start: -45
    m_End: 45
    m_Order: 4
    m_Sprites:
    - {fileID: 21300000, guid: fc9939a32da871240a807d930729938d, type: 3}
  - m_Start: -135
    m_End: -45
    m_Order: 3
    m_Sprites:
    - {fileID: 21300000, guid: 07e360a4c090c354a8af525c23dc9e2e, type: 3}
  - m_Start: 135
    m_End: 225
    m_Order: 2
    m_Sprites:
    - {fileID: 21300000, guid: 303bb94151a20f2428da30b7256e51f2, type: 3}
  - m_Start: 45
    m_End: 135
    m_Order: 1
    m_Sprites:
    - {fileID: 21300000, guid: a917f0b99d172bd43bad4ef88aa16ccd, type: 3}
  m_FillTexture: {fileID: 2800000, guid: 8889a55acc03b314d8fc3b055a64d15e, type: 3}
  m_CornerSprites:
  - m_CornerType: 0
    m_Sprites:
    - {fileID: 21300000, guid: c4790eee93c419644a29df830fc5add3, type: 3}
  - m_CornerType: 1
    m_Sprites:
    - {fileID: 21300000, guid: da43c69377d791b4db53eb10bb64f263, type: 3}
  - m_CornerType: 2
    m_Sprites:
    - {fileID: 21300000, guid: c01b6ee905d26144082019c2fa0375bf, type: 3}
  - m_CornerType: 3
    m_Sprites:
    - {fileID: 21300000, guid: ed063c300c6e7d7409a37e6170f2108c, type: 3}
  - m_CornerType: 4
    m_Sprites:
    - {fileID: 0}
  - m_CornerType: 5
    m_Sprites:
    - {fileID: 0}
  - m_CornerType: 6
    m_Sprites:
    - {fileID: 0}
  - m_CornerType: 7
    m_Sprites:
    - {fileID: 0}
  m_FillOffset: 0
  m_UseSpriteBorders: 1
