%YAML 1.1
%TAG !u! tag:unity3d.com,2011:
--- !u!74 &7400000
AnimationClip:
  m_ObjectHideFlags: 0
  m_CorrespondingSourceObject: {fileID: 0}
  m_PrefabInstance: {fileID: 0}
  m_PrefabAsset: {fileID: 0}
  m_Name: Idle
  serializedVersion: 6
  m_Legacy: 0
  m_Compressed: 0
  m_UseHighQualityCurve: 1
  m_RotationCurves: []
  m_CompressedRotationCurves: []
  m_EulerCurves: []
  m_PositionCurves: []
  m_ScaleCurves: []
  m_FloatCurves: []
  m_PPtrCurves:
  - curve:
    - time: 0
      value: {fileID: 21300000, guid: 1b72a8ae8031c84458e37245d49522fb, type: 3}
    - time: 0.083333336
      value: {fileID: 21300000, guid: 9703735dce47c424781045a8e5274c10, type: 3}
    - time: 0.16666667
      value: {fileID: 21300000, guid: 92dea00d3199e034e836707afb05bf8c, type: 3}
    - time: 0.25
      value: {fileID: 21300000, guid: 8a9b52057d64f2949ac4a04d2c701b98, type: 3}
    - time: 0.33333334
      value: {fileID: 21300000, guid: 5dd13eb502821ef44bef4d068cc897cc, type: 3}
    - time: 0.41666666
      value: {fileID: 21300000, guid: f6d705d3652aef644994b7c2644ad5a6, type: 3}
    - time: 0.5
      value: {fileID: 21300000, guid: 27ff1fb4a58cef44598a2acb63a522a3, type: 3}
    - time: 0.5833333
      value: {fileID: 21300000, guid: da9b6064c3f8544409501eeb6716e63b, type: 3}
    - time: 0.6666667
      value: {fileID: 21300000, guid: 1a4e47b7042909747bed7abc71d4e293, type: 3}
    - time: 0.75
      value: {fileID: 21300000, guid: 5fb26057ffdc5b64b987a64e6817491b, type: 3}
    attribute: m_Sprite
    path: 
    classID: 212
    script: {fileID: 0}
  m_SampleRate: 12
  m_WrapMode: 0
  m_Bounds:
    m_Center: {x: 0, y: 0, z: 0}
    m_Extent: {x: 0, y: 0, z: 0}
  m_ClipBindingConstant:
    genericBindings:
    - serializedVersion: 2
      path: 0
      attribute: 0
      script: {fileID: 0}
      typeID: 212
      customType: 23
      isPPtrCurve: 1
    pptrCurveMapping:
    - {fileID: 21300000, guid: 1b72a8ae8031c84458e37245d49522fb, type: 3}
    - {fileID: 21300000, guid: 9703735dce47c424781045a8e5274c10, type: 3}
    - {fileID: 21300000, guid: 92dea00d3199e034e836707afb05bf8c, type: 3}
    - {fileID: 21300000, guid: 8a9b52057d64f2949ac4a04d2c701b98, type: 3}
    - {fileID: 21300000, guid: 5dd13eb502821ef44bef4d068cc897cc, type: 3}
    - {fileID: 21300000, guid: f6d705d3652aef644994b7c2644ad5a6, type: 3}
    - {fileID: 21300000, guid: 27ff1fb4a58cef44598a2acb63a522a3, type: 3}
    - {fileID: 21300000, guid: da9b6064c3f8544409501eeb6716e63b, type: 3}
    - {fileID: 21300000, guid: 1a4e47b7042909747bed7abc71d4e293, type: 3}
    - {fileID: 21300000, guid: 5fb26057ffdc5b64b987a64e6817491b, type: 3}
  m_AnimationClipSettings:
    serializedVersion: 2
    m_AdditiveReferencePoseClip: {fileID: 0}
    m_AdditiveReferencePoseTime: 0
    m_StartTime: 0
    m_StopTime: 0.8333333
    m_OrientationOffsetY: 0
    m_Level: 0
    m_CycleOffset: 0
    m_HasAdditiveReferencePose: 0
    m_LoopTime: 1
    m_LoopBlend: 0
    m_LoopBlendOrientation: 0
    m_LoopBlendPositionY: 0
    m_LoopBlendPositionXZ: 0
    m_KeepOriginalOrientation: 0
    m_KeepOriginalPositionY: 1
    m_KeepOriginalPositionXZ: 0
    m_HeightFromFeet: 0
    m_Mirror: 0
  m_EditorCurves: []
  m_EulerEditorCurves: []
  m_HasGenericRootTransform: 0
  m_HasMotionFloatCurves: 0
  m_Events: []
