%YAML 1.1
%TAG !u! tag:unity3d.com,2011:
--- !u!74 &7400000
AnimationClip:
  m_ObjectHideFlags: 0
  m_CorrespondingSourceObject: {fileID: 0}
  m_PrefabInstance: {fileID: 0}
  m_PrefabAsset: {fileID: 0}
  m_Name: Run
  serializedVersion: 6
  m_Legacy: 0
  m_Compressed: 0
  m_UseHighQualityCurve: 1
  m_RotationCurves: []
  m_CompressedRotationCurves: []
  m_EulerCurves: []
  m_PositionCurves: []
  m_ScaleCurves: []
  m_FloatCurves: []
  m_PPtrCurves:
  - curve:
    - time: 0
      value: {fileID: 21300000, guid: 91af2c15cb18bf8458ee15d2dcf9a63f, type: 3}
    - time: 0.083333336
      value: {fileID: 21300000, guid: 486ce93e1632ccf4b88ed7731ca479fe, type: 3}
    - time: 0.16666667
      value: {fileID: 21300000, guid: f1deccf7d5a257a488e211b60cf27147, type: 3}
    - time: 0.25
      value: {fileID: 21300000, guid: 2ff74b90198a0ad459016031b98ba62e, type: 3}
    - time: 0.33333334
      value: {fileID: 21300000, guid: 65ce27e3bb28ba840aa67570ec6131d4, type: 3}
    - time: 0.41666666
      value: {fileID: 21300000, guid: b6bde042c07cc954d88aea5fc163b60c, type: 3}
    - time: 0.5
      value: {fileID: 21300000, guid: 0cc3892a30c2b0947b8e25a2f350bf5d, type: 3}
    - time: 0.5833333
      value: {fileID: 21300000, guid: 51167bc15bd73234db360b238ded3c59, type: 3}
    attribute: m_Sprite
    path: 
    classID: 212
    script: {fileID: 0}
  m_SampleRate: 12
  m_WrapMode: 0
  m_Bounds:
    m_Center: {x: 0, y: 0, z: 0}
    m_Extent: {x: 0, y: 0, z: 0}
  m_ClipBindingConstant:
    genericBindings:
    - serializedVersion: 2
      path: 0
      attribute: 0
      script: {fileID: 0}
      typeID: 212
      customType: 23
      isPPtrCurve: 1
    pptrCurveMapping:
    - {fileID: 21300000, guid: 91af2c15cb18bf8458ee15d2dcf9a63f, type: 3}
    - {fileID: 21300000, guid: 486ce93e1632ccf4b88ed7731ca479fe, type: 3}
    - {fileID: 21300000, guid: f1deccf7d5a257a488e211b60cf27147, type: 3}
    - {fileID: 21300000, guid: 2ff74b90198a0ad459016031b98ba62e, type: 3}
    - {fileID: 21300000, guid: 65ce27e3bb28ba840aa67570ec6131d4, type: 3}
    - {fileID: 21300000, guid: b6bde042c07cc954d88aea5fc163b60c, type: 3}
    - {fileID: 21300000, guid: 0cc3892a30c2b0947b8e25a2f350bf5d, type: 3}
    - {fileID: 21300000, guid: 51167bc15bd73234db360b238ded3c59, type: 3}
  m_AnimationClipSettings:
    serializedVersion: 2
    m_AdditiveReferencePoseClip: {fileID: 0}
    m_AdditiveReferencePoseTime: 0
    m_StartTime: 0
    m_StopTime: 0.6666666
    m_OrientationOffsetY: 0
    m_Level: 0
    m_CycleOffset: 0
    m_HasAdditiveReferencePose: 0
    m_LoopTime: 1
    m_LoopBlend: 0
    m_LoopBlendOrientation: 0
    m_LoopBlendPositionY: 0
    m_LoopBlendPositionXZ: 0
    m_KeepOriginalOrientation: 0
    m_KeepOriginalPositionY: 1
    m_KeepOriginalPositionXZ: 0
    m_HeightFromFeet: 0
    m_Mirror: 0
  m_EditorCurves: []
  m_EulerEditorCurves: []
  m_HasGenericRootTransform: 0
  m_HasMotionFloatCurves: 0
  m_Events: []
